{
	"title": "Indie's Eleven",
	"url": "https://example.com/indie/",
	"domain": "https://example.com",
	"email": "webmaster@example.com",
	"icon": "images/i11.png",
	"banner": "images/i11-wide.png",
	"search": {
		"link": "https://duckduckgo.com/?q=site:example.com",
		"action": "https://duckduckgo.com/",
		"queryField": "q",
		"addToQuery": "site:example.com"
	},
	"twitter": "ExampleSite",
	"author": "Indie"
}

